HUD frame time nsec:,6953000

Range Index,Elapsed Time, First Event,Last Event
0,63872,4,4
1,672,7,7
2,4992,13,13
3,12961664,17,17

Range Index,Elapsed Time, First Event,Last Event
0,58912,4,4
1,704,7,7
2,5248,13,13
3,12734816,17,17

Range Index,Elapsed Time, First Event,Last Event
0,64128,4,4
1,704,7,7
2,5440,13,13
3,12801216,17,17
