HUD frame time nsec:,6954000

Range Index,Elapsed Time, First Event,Last Event
0,58976,4,4
1,672,7,7
2,4736,13,13
3,12910880,17,17

Range Index,Elapsed Time, First Event,Last Event
0,58880,4,4
1,672,7,7
2,4320,13,13
3,13136128,17,17
